<?xml version="1.0" encoding="utf-8"?>
<!-- Generated by IcoMoon.io -->
<!DOCTYPE svg PUBLIC "-//W3C//DTD SVG 1.1//EN" "http://www.w3.org/Graphics/SVG/1.1/DTD/svg11.dtd">
<svg version="1.1" xmlns="http://www.w3.org/2000/svg" xmlns:xlink="http://www.w3.org/1999/xlink" width="1024" height="1024" viewBox="0 0 1024 1024">
<g id="icomoon-ignore">
</g>
<path d="M1023.968 460.496c0-33.264-30.672-60.496-63.968-60.496l-159.568 0.256-183.472-326.016c-8.32-14.384-38.304-5.184-52.688 3.12-14.4 8.32-41.856 22.4-33.536 36.784l161.024 286.112h-359.52l161.024-286.112c8.336-14.384-16.64-30.448-31.040-38.784-14.4-8.288-46.88-15.504-55.184-1.12l-183.44 326.016-159.6-0.256c-33.264 0-64 30.368-64 60.496v30.112c0 27.84 33.888 53.392 64 53.392l56.464 368.256c7.296 29.12 52.144 63.744 87.536 63.744h608c49.92 0 87.536-33.632 87.536-63.744l56.464-368.256c25.648-6.944 64-25.552 64-53.392l-0.032-30.112z"></path>
</svg>
